
<svg width="31px" height="32px" viewBox="0 0 31 32" version="1.1" xmlns="http://www.w3.org/2000/svg" xmlns:xlink="http://www.w3.org/1999/xlink">
    <g id="6_Giaodich" stroke="none" stroke-width="1" fill="none" fill-rule="evenodd">
        <g id="6_Giaodich_3_details" transform="translate(-573.000000, -152.000000)" fill="#E02729" fill-rule="nonzero">
            <g id="Menu" transform="translate(0.000000, 127.000000)">
                <g id="map-location" transform="translate(573.000000, 25.000000)">
                    <path d="M29.6328353,20.4491404 L30.9630603,9.89846057 L21.4200533,6.25608202 L18.3982249,7.70749304 C18.3049553,8.17168276 18.1635721,8.62344295 17.9786105,9.0580795 L20.2661794,7.95938918 L19.3217184,18.184918 L19.3745645,18.7327426 L12.4045222,19.7902436 L11.832482,20.9250985 L19.4751958,19.7660457 L20.356294,28.8354307 L21.3819304,28.7338128 L20.4953767,19.6120651 L20.5847025,19.5979827 L28.5755831,20.6163439 L28.5949732,20.4592559 L29.802482,30.6595291 L21.4805898,28.7274658 L10.6515278,30.8026008 L10.5613475,30.785411 L11.5347951,21.4814518 L11.5283536,21.4248578 L11.4885218,21.0763023 L10.1542216,18.4267648 L10.3424697,20.1028989 L10.1044647,20.1388652 L2.38511088,18.9359785 L2.43092404,18.5537707 L1.24812937,9.17371371 L6.64915305,11.4674231 L6.19831734,10.5734893 C6.05246452,10.3833441 5.92034908,10.184009 5.79506947,9.98123589 L0,7.5195296 L1.39247042,18.5576714 L1.36624452,18.7772376 L1.34685444,18.7741302 L1.1885131,19.797979 L1.24543448,19.8057805 L0.0558039832,29.8576266 L10.6529738,31.856201 L21.4613312,29.7858263 L31,32 L29.6328353,20.4491404 Z M20.5731999,18.5514567 L20.3952713,18.577638 L20.3563597,18.1879593 L21.3493946,7.43860548 L21.4667209,7.38214372 L29.8383044,10.5771917 L28.70152,19.5862143 L20.5731999,18.5514567 Z M9.54530747,30.5939435 L1.19239112,29.0183034 L2.26469522,19.966042 L10.1030187,21.1877052 L10.4590731,21.1338219 L10.4989049,21.4854848 L9.54530747,30.5939435 Z M11.622872,21.3416858 L11.4892448,21.076699 L11.4783995,20.9789818 L11.8329421,20.9250985 L11.622872,21.3416858 Z M6.99962047,9.68762151 L11.5512273,18.7226271 L16.0532745,9.78434699 C16.9375277,8.74720925 17.4752572,7.40310201 17.4752572,5.93198887 C17.4751915,2.66104143 14.8293991,0 11.5773875,0 C8.32557306,0 5.68083234,2.66104143 5.68083234,5.93198887 C5.68083234,7.35622685 6.18280527,8.66357444 7.0171044,9.68762151 L6.99962047,9.68762151 Z M11.5777819,2.28610625 C13.5760772,2.28610625 15.2025431,3.92191054 15.2025431,5.93198887 C15.2025431,7.94193496 13.5760772,9.57800371 11.5777819,9.57800371 C9.57948659,9.57800371 7.95315213,7.94193496 7.95315213,5.93198887 C7.95321786,3.92191054 9.57909222,2.28610625 11.5777819,2.28610625 Z" id="Shape"></path>
                </g>
            </g>
        </g>
    </g>
</svg>